<?xml version='1.0' encoding='utf-8'?>
<gexf xmlns="http://www.gexf.net/1.2draft" xmlns:xsi="http://www.w3.org/2001/XMLSchema-instance" xsi:schemaLocation="http://www.gexf.net/1.2draft http://www.gexf.net/1.2draft/gexf.xsd" version="1.2">
  <meta lastmodifieddate="2021-02-21">
    <creator>NetworkX 2.5</creator>
  </meta>
  <graph defaultedgetype="undirected" mode="static" name="">
    <nodes>
      <node id="4" label="§ 4 Geltung für Taten auf deutschen Schiffen und Luftfahrzeugen" />
      <node id="5" label="§ 5 Auslandstaten mit besonderem Inlandsbezug" />
      <node id="6" label="§ 6 Auslandstaten gegen international geschützte Rechtsgüter" />
      <node id="7" label="§ 7 Geltung für Auslandstaten in anderen Fällen" />
      <node id="8" label="§ 8 Zeit der Tat" />
      <node id="9" label="§ 9 Ort der Tat" />
      <node id="14" label="§ 14 Handeln für einen anderen" />
      <node id="17" label="§ 17 Verbotsirrtum" />
      <node id="20" label="§ 20 Schuldunfähigkeit wegen seelischer Störungen" />
      <node id="21" label="§ 21 Verminderte Schuldfähigkeit" />
      <node id="24" label="§ 24 Rücktritt" />
      <node id="28" label="§ 28 Besondere persönliche Merkmale" />
      <node id="30" label="§ 30 Versuch der Beteiligung" />
      <node id="31" label="§ 31 Rücktritt vom Versuch der Beteiligung" />
      <node id="34" label="§ 34 Rechtfertigender Notstand" />
      <node id="35" label="§ 35 Entschuldigender Notstand" />
      <node id="45" label="§ 45 Verlust der Amtsfähigkeit, der Wählbarkeit und des Stimmrechts" />
      <node id="45a" label="§ 45a Eintritt und Berechnung des Verlustes" />
      <node id="53" label="§ 53 Tatmehrheit" />
      <node id="56" label="§ 56 Strafaussetzung" />
      <node id="56a" label="§ 56a Bewährungszeit" />
      <node id="56c" label="§ 56c Weisungen" />
      <node id="56d" label="§ 56d Bewährungshilfe" />
      <node id="56e" label="§ 56e Nachträgliche Entscheidungen" />
      <node id="56f" label="§ 56f Widerruf der Strafaussetzung" />
      <node id="56g" label="§ 56g Straferlaß" />
      <node id="57" label="§ 57 Aussetzung des Strafrestes bei zeitiger Freiheitsstrafe" />
      <node id="57a" label="§ 57a Aussetzung des Strafrestes bei lebenslanger Freiheitsstrafe" />
      <node id="57b" label="§ 57b Aussetzung des Strafrestes bei lebenslanger Freiheitsstrafe als Gesamtstrafe" />
      <node id="58" label="§ 58 Gesamtstrafe und Strafaussetzung" />
      <node id="59" label="§ 59 Voraussetzungen der Verwarnung mit Strafvorbehalt" />
      <node id="63" label="§ 63 Unterbringung in einem psychiatrischen Krankenhaus" />
      <node id="66" label="§ 66 Unterbringung in der Sicherungsverwahrung" />
      <node id="66b" label="§ 66b Nachträgliche Anordnung der Unterbringung in der Sicherungsverwahrung" />
      <node id="67" label="§ 67 Reihenfolge der Vollstreckung" />
      <node id="67a" label="§ 67a Überweisung in den Vollzug einer anderen Maßregel" />
      <node id="67b" label="§ 67b Aussetzung zugleich mit der Anordnung" />
      <node id="67c" label="§ 67c Späterer Beginn der Unterbringung" />
      <node id="67d" label="§ 67d Dauer der Unterbringung" />
      <node id="67e" label="§ 67e Überprüfung" />
      <node id="67g" label="§ 67g Widerruf der Aussetzung" />
      <node id="67h" label="§ 67h Befristete Wiederinvollzugsetzung; Krisenintervention" />
      <node id="68b" label="§ 68b Weisungen" />
      <node id="68d" label="§ 68d Nachträgliche Entscheidungen; Überprüfungsfrist" />
      <node id="68e" label="§ 68e Beendigung oder Ruhen der Führungsaufsicht" />
      <node id="68f" label="§ 68f Führungsaufsicht bei Nichtaussetzung des Strafrestes" />
      <node id="68g" label="§ 68g Führungsaufsicht und Aussetzung zur Bewährung" />
      <node id="70b" label="§ 70b Widerruf der Aussetzung und Erledigung des Berufsverbots" />
      <node id="71" label="§ 71 Selbständige Anordnung" />
      <node id="73" label="§ 73 Einziehung von Taterträgen bei Tätern und Teilnehmern" />
      <node id="73a" label="§ 73a Erweiterte Einziehung von Taterträgen bei Tätern und Teilnehmern" />
      <node id="73b" label="§ 73b Einziehung von Taterträgen bei anderen" />
      <node id="73c" label="§ 73c Einziehung des Wertes von Taterträgen" />
      <node id="74" label="§ 74 Einziehung von Tatprodukten, Tatmitteln und Tatobjekten bei Tätern und Teilnehmern" />
      <node id="74a" label="§ 74a Einziehung von Tatprodukten, Tatmitteln und Tatobjekten bei anderen" />
      <node id="74c" label="§ 74c Einziehung des Wertes von Tatprodukten, Tatmitteln und Tatobjekten bei Tätern und Teilnehmern" />
      <node id="77" label="§ 77 Antragsberechtigte" />
      <node id="77b" label="§ 77b Antragsfrist" />
      <node id="77d" label="§ 77d Zurücknahme des Antrags" />
      <node id="79a" label="§ 79a Ruhen" />
      <node id="81" label="§ 81 Hochverrat gegen den Bund" />
      <node id="82" label="§ 82 Hochverrat gegen ein Land" />
      <node id="83a" label="§ 83a Tätige Reue" />
      <node id="84" label="§ 84 Fortführung einer für verfassungswidrig erklärten Partei" />
      <node id="85" label="§ 85 Verstoß gegen ein Vereinigungsverbot" />
      <node id="86" label="§ 86 Verbreiten von Propagandamitteln verfassungswidriger Organisationen" />
      <node id="88" label="§ 88 Verfassungsfeindliche Sabotage" />
      <node id="89" label="§ 89 Verfassungsfeindliche Einwirkung auf Bundeswehr und öffentliche Sicherheitsorgane" />
      <node id="89b" label="§ 89b Aufnahme von Beziehungen zur Begehung einer schweren staatsgefährdenden Gewalttat" />
      <node id="89c" label="§ 89c Terrorismusfinanzierung" />
      <node id="90" label="§ 90 Verunglimpfung des Bundespräsidenten" />
      <node id="90a" label="§ 90a Verunglimpfung des Staates und seiner Symbole" />
      <node id="90b" label="§ 90b Verfassungsfeindliche Verunglimpfung von Verfassungsorganen" />
      <node id="90c" label="§ 90c Verunglimpfung von Symbolen der Europäischen Union" />
      <node id="91" label="§ 91 Anleitung zur Begehung einer schweren staatsgefährdenden Gewalttat" />
      <node id="92" label="§ 92 Begriffsbestimmungen" />
      <node id="92a" label="§ 92a Nebenfolgen" />
      <node id="92b" label="§ 92b Einziehung" />
      <node id="93" label="§ 93 Begriff des Staatsgeheimnisses" />
      <node id="94" label="§ 94 Landesverrat" />
      <node id="95" label="§ 95 Offenbaren von Staatsgeheimnissen" />
      <node id="96" label="§ 96 Landesverräterische Ausspähung; Auskundschaften von Staatsgeheimnissen" />
      <node id="97" label="§ 97 Preisgabe von Staatsgeheimnissen" />
      <node id="97a" label="§ 97a Verrat illegaler Geheimnisse" />
      <node id="97b" label="§ 97b Verrat in irriger Annahme eines illegalen Geheimnisses" />
      <node id="98" label="§ 98 Landesverräterische Agententätigkeit" />
      <node id="99" label="§ 99 Geheimdienstliche Agententätigkeit" />
      <node id="100" label="§ 100 Friedensgefährdende Beziehungen" />
      <node id="100a" label="§ 100a Landesverräterische Fälschung" />
      <node id="101" label="§ 101 Nebenfolgen" />
      <node id="101a" label="§ 101a Einziehung" />
      <node id="104a" label="§ 104a Voraussetzungen der Strafverfolgung" />
      <node id="105" label="§ 105 Nötigung von Verfassungsorganen" />
      <node id="106" label="§ 106 Nötigung des Bundespräsidenten und von Mitgliedern eines Verfassungsorgans" />
      <node id="107" label="§ 107 Wahlbehinderung" />
      <node id="108" label="§ 108 Wählernötigung" />
      <node id="108b" label="§ 108b Wählerbestechung" />
      <node id="108c" label="§ 108c Nebenfolgen" />
      <node id="109" label="§ 109 Wehrpflichtentziehung durch Verstümmelung" />
      <node id="109a" label="§ 109a Wehrpflichtentziehung durch Täuschung" />
      <node id="109f" label="§ 109f Sicherheitsgefährdender Nachrichtendienst" />
      <node id="109g" label="§ 109g Sicherheitsgefährdendes Abbilden" />
      <node id="109h" label="§ 109h Anwerben für fremden Wehrdienst" />
      <node id="109i" label="§ 109i Nebenfolgen" />
      <node id="109k" label="§ 109k Einziehung" />
      <node id="113" label="§ 113 Widerstand gegen Vollstreckungsbeamte" />
      <node id="114" label="§ 114 Tätlicher Angriff auf Vollstreckungsbeamte" />
      <node id="123" label="§ 123 Hausfriedensbruch" />
      <node id="124" label="§ 124 Schwerer Hausfriedensbruch" />
      <node id="125" label="§ 125 Landfriedensbruch" />
      <node id="125a" label="§ 125a Besonders schwerer Fall des Landfriedensbruchs" />
      <node id="126" label="§ 126 Störung des öffentlichen Friedens durch Androhung von Straftaten" />
      <node id="129a" label="§ 129a Bildung terroristischer Vereinigungen" />
      <node id="139" label="§ 139 Straflosigkeit der Nichtanzeige geplanter Straftaten" />
      <node id="140" label="§ 140 Belohnung und Billigung von Straftaten" />
      <node id="145a" label="§ 145a Verstoß gegen Weisungen während der Führungsaufsicht" />
      <node id="146" label="§ 146 Geldfälschung" />
      <node id="149" label="§ 149 Vorbereitung der Fälschung von Geld und Wertzeichen" />
      <node id="150" label="§ 150 Einziehung" />
      <node id="152a" label="§ 152a Fälschung von Zahlungskarten, Schecks und Wechseln" />
      <node id="152b" label="§ 152b Fälschung von Zahlungskarten mit Garantiefunktion und Vordrucken für Euroschecks" />
      <node id="157" label="§ 157 Aussagenotstand" />
      <node id="158" label="§ 158 Berichtigung einer falschen Angabe" />
      <node id="159" label="§ 159 Versuch der Anstiftung zur Falschaussage" />
      <node id="160" label="§ 160 Verleitung zur Falschaussage" />
      <node id="161" label="§ 161 Fahrlässiger Falscheid; fahrlässige falsche Versicherung an Eides Statt" />
      <node id="165" label="§ 165 Bekanntgabe der Verurteilung" />
      <node id="166" label="§ 166 Beschimpfung von Bekenntnissen, Religionsgesellschaften und Weltanschauungsvereinigungen" />
      <node id="169" label="§ 169 Personenstandsfälschung" />
      <node id="174" label="§ 174 Sexueller Mißbrauch von Schutzbefohlenen" />
      <node id="174a" label="§ 174a Sexueller Mißbrauch von Gefangenen, behördlich Verwahrten oder Kranken und Hilfsbedürftigen in Einrichtungen" />
      <node id="174b" label="§ 174b Sexueller Mißbrauch unter Ausnutzung einer Amtsstellung" />
      <node id="174c" label="§ 174c Sexueller Mißbrauch unter Ausnutzung eines Beratungs-, Behandlungs- oder Betreuungsverhältnisses" />
      <node id="176" label="§ 176 Sexueller Mißbrauch von Kindern" />
      <node id="176b" label="§ 176b Sexueller Mißbrauch von Kindern mit Todesfolge" />
      <node id="178" label="§ 178 Sexueller Übergriff, sexuelle Nötigung und Vergewaltigung mit Todesfolge" />
      <node id="182" label="§ 182 Sexueller Mißbrauch von Jugendlichen" />
      <node id="183" label="§ 183 Exhibitionistische Handlungen" />
      <node id="184b" label="§ 184b Verbreitung, Erwerb und Besitz kinderpornographischer Inhalte" />
      <node id="184c" label="§ 184c Verbreitung, Erwerb und Besitz jugendpornographischer Inhalte" />
      <node id="186" label="§ 186 Üble Nachrede" />
      <node id="187" label="§ 187 Verleumdung" />
      <node id="194" label="§ 194 Strafantrag" />
      <node id="200" label="§ 200 Bekanntgabe der Verurteilung" />
      <node id="205" label="§ 205 Strafantrag" />
      <node id="219a" label="§ 219a Werbung für den Abbruch der Schwangerschaft" />
      <node id="219b" label="§ 219b Inverkehrbringen von Mitteln zum Abbruch der Schwangerschaft" />
      <node id="219c" label="§ 219c (weggefallen" />
      <node id="219d" label="§ 219d (weggefallen" />
      <node id="221" label="§ 221 Aussetzung" />
      <node id="226" label="§ 226 Schwere Körperverletzung" />
      <node id="230" label="§ 230 Strafantrag" />
      <node id="234a" label="§ 234a Verschleppung" />
      <node id="237" label="§ 237 Zwangsheirat" />
      <node id="239a" label="§ 239a Erpresserischer Menschenraub" />
      <node id="239b" label="§ 239b Geiselnahme" />
      <node id="240" label="§ 240 Nötigung" />
      <node id="241a" label="§ 241a Politische Verdächtigung" />
      <node id="242" label="§ 242 Diebstahl" />
      <node id="244" label="§ 244 Diebstahl mit Waffen; Bandendiebstahl; Wohnungseinbruchdiebstahl" />
      <node id="244a" label="§ 244a Schwerer Bandendiebstahl" />
      <node id="247" label="§ 247 Haus- und Familiendiebstahl" />
      <node id="248a" label="§ 248a Diebstahl und Unterschlagung geringwertiger Sachen" />
      <node id="249" label="§ 249 Raub" />
      <node id="251" label="§ 251 Raub mit Todesfolge" />
      <node id="252" label="§ 252 Räuberischer Diebstahl" />
      <node id="253" label="§ 253 Erpressung" />
      <node id="255" label="§ 255 Räuberische Erpressung" />
      <node id="258a" label="§ 258a Strafvereitelung im Amt" />
      <node id="260" label="§ 260 Gewerbsmäßige Hehlerei; Bandenhehlerei" />
      <node id="260a" label="§ 260a Gewerbsmäßige Bandenhehlerei" />
      <node id="265c" label="§ 265c Sportwettbetrug" />
      <node id="265d" label="§ 265d Manipulation von berufssportlichen Wettbewerben" />
      <node id="265e" label="§ 265e Besonders schwere Fälle des Sportwettbetrugs und der Manipulation von berufssportlichen Wettbewerben" />
      <node id="267" label="§ 267 Urkundenfälschung" />
      <node id="268" label="§ 268 Fälschung technischer Aufzeichnungen" />
      <node id="269" label="§ 269 Fälschung beweiserheblicher Daten" />
      <node id="273" label="§ 273 Verändern von amtlichen Ausweisen" />
      <node id="275" label="§ 275 Vorbereitung der Fälschung von amtlichen Ausweisen" />
      <node id="276" label="§ 276 Verschaffen von falschen amtlichen Ausweisen" />
      <node id="278" label="§ 278 Ausstellen unrichtiger Gesundheitszeugnisse" />
      <node id="279" label="§ 279 Gebrauch unrichtiger Gesundheitszeugnisse" />
      <node id="281" label="§ 281 Mißbrauch von Ausweispapieren" />
      <node id="282" label="§ 282 Einziehung" />
      <node id="283a" label="§ 283a Besonders schwerer Fall des Bankrotts" />
      <node id="289" label="§ 289 Pfandkehr" />
      <node id="299" label="§ 299 Bestechlichkeit und Bestechung im geschäftlichen Verkehr" />
      <node id="299a" label="§ 299a Bestechlichkeit im Gesundheitswesen" />
      <node id="299b" label="§ 299b Bestechung im Gesundheitswesen" />
      <node id="300" label="§ 300 Besonders schwere Fälle der Bestechlichkeit und Bestechung im geschäftlichen Verkehr und im Gesundheitswesen" />
      <node id="301" label="§ 301 Strafantrag" />
      <node id="303" label="§ 303 Sachbeschädigung" />
      <node id="303c" label="§ 303c Strafantrag" />
      <node id="306b" label="§ 306b Besonders schwere Brandstiftung" />
      <node id="306d" label="§ 306d Fahrlässige Brandstiftung" />
      <node id="306e" label="§ 306e Tätige Reue" />
      <node id="307" label="§ 307 Herbeiführen einer Explosion durch Kernenergie" />
      <node id="308" label="§ 308 Herbeiführen einer Sprengstoffexplosion" />
      <node id="311" label="§ 311 Freisetzen ionisierender Strahlen" />
      <node id="312" label="§ 312 Fehlerhafte Herstellung einer kerntechnischen Anlage" />
      <node id="313" label="§ 313 Herbeiführen einer Überschwemmung" />
      <node id="314a" label="§ 314a Tätige Reue" />
      <node id="315" label="§ 315 Gefährliche Eingriffe in den Bahn-, Schiffs- und Luftverkehr" />
      <node id="315a" label="§ 315a Gefährdung des Bahn-, Schiffs- und Luftverkehrs" />
      <node id="315b" label="§ 315b Gefährliche Eingriffe in den Straßenverkehr" />
      <node id="315c" label="§ 315c Gefährdung des Straßenverkehrs" />
      <node id="315d" label="§ 315d Verbotene Kraftfahrzeugrennen" />
      <node id="316b" label="§ 316b Störung öffentlicher Betriebe" />
      <node id="317" label="§ 317 Störung von Telekommunikationsanlagen" />
      <node id="318" label="§ 318 Beschädigung wichtiger Anlagen" />
      <node id="319" label="§ 319 Baugefährdung" />
      <node id="320" label="§ 320 Tätige Reue" />
      <node id="322" label="§ 322 Einziehung" />
      <node id="324" label="§ 324 Gewässerverunreinigung" />
      <node id="324a" label="§ 324a Bodenverunreinigung" />
      <node id="325" label="§ 325 Luftverunreinigung" />
      <node id="325a" label="§ 325a Verursachen von Lärm, Erschütterungen und nichtionisierenden Strahlen" />
      <node id="327" label="§ 327 Unerlaubtes Betreiben von Anlagen" />
      <node id="328" label="§ 328 Unerlaubter Umgang mit radioaktiven Stoffen und anderen gefährlichen Stoffen und Gütern" />
      <node id="330" label="§ 330 Besonders schwerer Fall einer Umweltstraftat" />
      <node id="330a" label="§ 330a Schwere Gefährdung durch Freisetzen von Giften" />
      <node id="330b" label="§ 330b Tätige Reue" />
      <node id="330c" label="§ 330c Einziehung" />
      <node id="330d" label="§ 330d Begriffsbestimmungen" />
      <node id="331" label="§ 331 Vorteilsannahme" />
      <node id="332" label="§ 332 Bestechlichkeit" />
      <node id="333" label="§ 333 Vorteilsgewährung" />
      <node id="334" label="§ 334 Bestechung" />
      <node id="335" label="§ 335 Besonders schwere Fälle der Bestechlichkeit und Bestechung" />
      <node id="337" label="§ 337 Schiedsrichtervergütung" />
      <node id="343" label="§ 343 Aussageerpressung" />
      <node id="344" label="§ 344 Verfolgung Unschuldiger" />
      <node id="345" label="§ 345 Vollstreckung gegen Unschuldige" />
      <node id="352" label="§ 352 Gebührenüberhebung" />
      <node id="353" label="§ 353 Abgabenüberhebung; Leistungskürzung" />
      <node id="353a" label="§ 353a Vertrauensbruch im auswärtigen Dienst" />
      <node id="355" label="§ 355 Verletzung des Steuergeheimnisses" />
      <node id="358" label="§ 358 Nebenfolgen" />
    </nodes>
    <edges>
      <edge source="4" target="6" id="0" weight="4" />
      <edge source="4" target="7" id="1" weight="4" />
      <edge source="5" target="100" id="2" weight="4" />
      <edge source="6" target="7" id="3" weight="4" />
      <edge source="8" target="9" id="4" weight="5" />
      <edge source="14" target="28" id="5" weight="5" />
      <edge source="17" target="20" id="6" weight="4" />
      <edge source="17" target="21" id="7" weight="4" />
      <edge source="24" target="31" id="8" weight="6" />
      <edge source="30" target="31" id="9" weight="4" />
      <edge source="34" target="35" id="10" weight="4" />
      <edge source="45" target="45a" id="11" weight="4" />
      <edge source="45" target="92a" id="12" weight="4" />
      <edge source="45" target="101" id="13" weight="6" />
      <edge source="45" target="108c" id="14" weight="4" />
      <edge source="45" target="109i" id="15" weight="6" />
      <edge source="45" target="358" id="16" weight="4" />
      <edge source="53" target="58" id="17" weight="4" />
      <edge source="56" target="57" id="18" weight="5" />
      <edge source="56" target="58" id="19" weight="4" />
      <edge source="56" target="59" id="20" weight="4" />
      <edge source="56a" target="56f" id="21" weight="4" />
      <edge source="56c" target="68b" id="22" weight="5" />
      <edge source="56d" target="67g" id="23" weight="4" />
      <edge source="56e" target="68d" id="24" weight="4" />
      <edge source="56f" target="56g" id="25" weight="4" />
      <edge source="56f" target="68g" id="26" weight="4" />
      <edge source="56f" target="70b" id="27" weight="5" />
      <edge source="56g" target="68g" id="28" weight="4" />
      <edge source="56g" target="70b" id="29" weight="4" />
      <edge source="57" target="57a" id="30" weight="5" />
      <edge source="57" target="58" id="31" weight="4" />
      <edge source="57" target="67b" id="32" weight="4" />
      <edge source="57" target="68g" id="33" weight="5" />
      <edge source="57" target="79a" id="34" weight="5" />
      <edge source="57a" target="57b" id="35" weight="4" />
      <edge source="58" target="68g" id="36" weight="4" />
      <edge source="63" target="66b" id="37" weight="5" />
      <edge source="66" target="68f" id="38" weight="4" />
      <edge source="66b" target="67b" id="39" weight="4" />
      <edge source="67" target="67b" id="40" weight="4" />
      <edge source="67" target="67c" id="41" weight="4" />
      <edge source="67a" target="67c" id="42" weight="4" />
      <edge source="67b" target="67c" id="43" weight="4" />
      <edge source="67b" target="67e" id="44" weight="4" />
      <edge source="67b" target="67g" id="45" weight="4" />
      <edge source="67b" target="71" id="46" weight="4" />
      <edge source="67c" target="67d" id="47" weight="4" />
      <edge source="67c" target="67g" id="48" weight="4" />
      <edge source="67c" target="68e" id="49" weight="4" />
      <edge source="67d" target="67g" id="50" weight="4" />
      <edge source="67d" target="67h" id="51" weight="4" />
      <edge source="67g" target="70b" id="52" weight="4" />
      <edge source="67g" target="145a" id="53" weight="4" />
      <edge source="73" target="73a" id="54" weight="4" />
      <edge source="73" target="73b" id="55" weight="4" />
      <edge source="73" target="73c" id="56" weight="4" />
      <edge source="73a" target="74" id="57" weight="4" />
      <edge source="73c" target="74c" id="58" weight="5" />
      <edge source="74" target="74a" id="59" weight="5" />
      <edge source="74" target="101a" id="60" weight="4" />
      <edge source="74a" target="74c" id="61" weight="4" />
      <edge source="77" target="77b" id="62" weight="5" />
      <edge source="77" target="77d" id="63" weight="4" />
      <edge source="77" target="205" id="64" weight="4" />
      <edge source="81" target="82" id="65" weight="6" />
      <edge source="81" target="92" id="66" weight="4" />
      <edge source="83a" target="306e" id="67" weight="4" />
      <edge source="83a" target="314a" id="68" weight="6" />
      <edge source="83a" target="320" id="69" weight="5" />
      <edge source="83a" target="330b" id="70" weight="4" />
      <edge source="84" target="85" id="71" weight="8" />
      <edge source="85" target="86" id="72" weight="4" />
      <edge source="88" target="316b" id="73" weight="7" />
      <edge source="89" target="92" id="74" weight="6" />
      <edge source="89b" target="91" id="75" weight="4" />
      <edge source="89c" target="101a" id="76" weight="4" />
      <edge source="89c" target="109k" id="77" weight="4" />
      <edge source="89c" target="126" id="78" weight="4" />
      <edge source="90" target="90a" id="79" weight="5" />
      <edge source="90" target="90b" id="80" weight="4" />
      <edge source="90" target="90c" id="81" weight="5" />
      <edge source="90" target="187" id="82" weight="4" />
      <edge source="90a" target="90b" id="83" weight="4" />
      <edge source="90a" target="90c" id="84" weight="6" />
      <edge source="90a" target="187" id="85" weight="4" />
      <edge source="90b" target="90c" id="86" weight="4" />
      <edge source="90b" target="105" id="87" weight="6" />
      <edge source="90c" target="187" id="88" weight="4" />
      <edge source="92" target="109f" id="89" weight="4" />
      <edge source="92a" target="101" id="90" weight="6" />
      <edge source="92a" target="108c" id="91" weight="4" />
      <edge source="92a" target="109i" id="92" weight="5" />
      <edge source="92a" target="358" id="93" weight="4" />
      <edge source="92b" target="101a" id="94" weight="10" />
      <edge source="92b" target="109k" id="95" weight="9" />
      <edge source="92b" target="150" id="96" weight="4" />
      <edge source="92b" target="322" id="97" weight="9" />
      <edge source="92b" target="330c" id="98" weight="10" />
      <edge source="93" target="94" id="99" weight="5" />
      <edge source="93" target="95" id="100" weight="5" />
      <edge source="93" target="97" id="101" weight="5" />
      <edge source="93" target="97a" id="102" weight="5" />
      <edge source="93" target="100a" id="103" weight="6" />
      <edge source="94" target="95" id="104" weight="7" />
      <edge source="94" target="97" id="105" weight="7" />
      <edge source="94" target="97a" id="106" weight="7" />
      <edge source="94" target="100a" id="107" weight="7" />
      <edge source="95" target="96" id="108" weight="5" />
      <edge source="95" target="97" id="109" weight="9" />
      <edge source="95" target="97a" id="110" weight="6" />
      <edge source="95" target="100a" id="111" weight="5" />
      <edge source="96" target="97" id="112" weight="5" />
      <edge source="97" target="97a" id="113" weight="6" />
      <edge source="97" target="100a" id="114" weight="5" />
      <edge source="97a" target="97b" id="115" weight="4" />
      <edge source="97a" target="100a" id="116" weight="5" />
      <edge source="97b" target="145a" id="117" weight="4" />
      <edge source="98" target="99" id="118" weight="4" />
      <edge source="100" target="104a" id="119" weight="4" />
      <edge source="100" target="353a" id="120" weight="4" />
      <edge source="100a" target="109g" id="121" weight="4" />
      <edge source="101" target="108c" id="122" weight="8" />
      <edge source="101" target="109i" id="123" weight="10" />
      <edge source="101" target="358" id="124" weight="6" />
      <edge source="101a" target="109k" id="125" weight="10" />
      <edge source="101a" target="150" id="126" weight="5" />
      <edge source="101a" target="322" id="127" weight="9" />
      <edge source="101a" target="330c" id="128" weight="9" />
      <edge source="105" target="106" id="129" weight="7" />
      <edge source="107" target="169" id="130" weight="4" />
      <edge source="108" target="240" id="131" weight="4" />
      <edge source="108b" target="333" id="132" weight="4" />
      <edge source="108b" target="337" id="133" weight="6" />
      <edge source="108c" target="109i" id="134" weight="10" />
      <edge source="108c" target="358" id="135" weight="5" />
      <edge source="109" target="109a" id="136" weight="5" />
      <edge source="109h" target="303" id="137" weight="4" />
      <edge source="109i" target="358" id="138" weight="7" />
      <edge source="109k" target="322" id="139" weight="9" />
      <edge source="109k" target="330c" id="140" weight="9" />
      <edge source="113" target="114" id="141" weight="9" />
      <edge source="123" target="124" id="142" weight="5" />
      <edge source="124" target="125" id="143" weight="4" />
      <edge source="125a" target="283a" id="144" weight="4" />
      <edge source="126" target="129a" id="145" weight="6" />
      <edge source="126" target="139" id="146" weight="5" />
      <edge source="140" target="166" id="147" weight="4" />
      <edge source="146" target="152b" id="148" weight="5" />
      <edge source="149" target="275" id="149" weight="5" />
      <edge source="150" target="282" id="150" weight="4" />
      <edge source="152a" target="152b" id="151" weight="5" />
      <edge source="152a" target="276" id="152" weight="4" />
      <edge source="157" target="158" id="153" weight="5" />
      <edge source="158" target="159" id="154" weight="4" />
      <edge source="158" target="160" id="155" weight="4" />
      <edge source="158" target="161" id="156" weight="4" />
      <edge source="159" target="160" id="157" weight="5" />
      <edge source="165" target="187" id="158" weight="4" />
      <edge source="165" target="200" id="159" weight="7" />
      <edge source="174" target="174a" id="160" weight="4" />
      <edge source="174a" target="174c" id="161" weight="7" />
      <edge source="174a" target="176" id="162" weight="4" />
      <edge source="174a" target="182" id="163" weight="5" />
      <edge source="174b" target="174c" id="164" weight="4" />
      <edge source="174b" target="258a" id="165" weight="5" />
      <edge source="174b" target="343" id="166" weight="5" />
      <edge source="174b" target="344" id="167" weight="5" />
      <edge source="174b" target="345" id="168" weight="4" />
      <edge source="174c" target="176" id="169" weight="4" />
      <edge source="174c" target="182" id="170" weight="5" />
      <edge source="176" target="182" id="171" weight="5" />
      <edge source="176b" target="178" id="172" weight="6" />
      <edge source="176b" target="251" id="173" weight="4" />
      <edge source="178" target="251" id="174" weight="4" />
      <edge source="183" target="205" id="175" weight="5" />
      <edge source="183" target="230" id="176" weight="5" />
      <edge source="183" target="248a" id="177" weight="5" />
      <edge source="183" target="301" id="178" weight="5" />
      <edge source="183" target="303c" id="179" weight="5" />
      <edge source="184b" target="184c" id="180" weight="6" />
      <edge source="186" target="187" id="181" weight="7" />
      <edge source="194" target="230" id="182" weight="4" />
      <edge source="205" target="230" id="183" weight="6" />
      <edge source="205" target="248a" id="184" weight="5" />
      <edge source="205" target="301" id="185" weight="6" />
      <edge source="205" target="303c" id="186" weight="5" />
      <edge source="219a" target="219b" id="187" weight="4" />
      <edge source="219c" target="219d" id="188" weight="14" />
      <edge source="221" target="239a" id="189" weight="4" />
      <edge source="221" target="308" id="190" weight="4" />
      <edge source="221" target="312" id="191" weight="4" />
      <edge source="221" target="315" id="192" weight="4" />
      <edge source="221" target="318" id="193" weight="4" />
      <edge source="221" target="330a" id="194" weight="5" />
      <edge source="226" target="330a" id="195" weight="4" />
      <edge source="230" target="248a" id="196" weight="8" />
      <edge source="230" target="301" id="197" weight="7" />
      <edge source="230" target="303c" id="198" weight="9" />
      <edge source="234a" target="241a" id="199" weight="7" />
      <edge source="237" target="240" id="200" weight="5" />
      <edge source="237" target="253" id="201" weight="5" />
      <edge source="239a" target="239b" id="202" weight="4" />
      <edge source="239b" target="240" id="203" weight="5" />
      <edge source="239b" target="253" id="204" weight="4" />
      <edge source="240" target="253" id="205" weight="8" />
      <edge source="242" target="289" id="206" weight="4" />
      <edge source="242" target="303" id="207" weight="5" />
      <edge source="244" target="244a" id="208" weight="4" />
      <edge source="244a" target="260" id="209" weight="5" />
      <edge source="244a" target="260a" id="210" weight="6" />
      <edge source="247" target="248a" id="211" weight="4" />
      <edge source="248a" target="301" id="212" weight="6" />
      <edge source="248a" target="303c" id="213" weight="9" />
      <edge source="249" target="252" id="214" weight="5" />
      <edge source="249" target="255" id="215" weight="6" />
      <edge source="252" target="255" id="216" weight="7" />
      <edge source="258a" target="343" id="217" weight="5" />
      <edge source="258a" target="344" id="218" weight="6" />
      <edge source="260" target="260a" id="219" weight="8" />
      <edge source="260" target="267" id="220" weight="4" />
      <edge source="265c" target="265d" id="221" weight="5" />
      <edge source="265e" target="300" id="222" weight="5" />
      <edge source="268" target="269" id="223" weight="4" />
      <edge source="269" target="281" id="224" weight="4" />
      <edge source="269" target="324" id="225" weight="4" />
      <edge source="273" target="276" id="226" weight="5" />
      <edge source="278" target="279" id="227" weight="5" />
      <edge source="283a" target="330" id="228" weight="4" />
      <edge source="299" target="332" id="229" weight="5" />
      <edge source="299" target="334" id="230" weight="4" />
      <edge source="299a" target="299b" id="231" weight="8" />
      <edge source="300" target="335" id="232" weight="5" />
      <edge source="301" target="303c" id="233" weight="6" />
      <edge source="303" target="317" id="234" weight="4" />
      <edge source="306b" target="306d" id="235" weight="4" />
      <edge source="306b" target="308" id="236" weight="4" />
      <edge source="306b" target="315" id="237" weight="4" />
      <edge source="306b" target="330a" id="238" weight="5" />
      <edge source="306e" target="320" id="239" weight="5" />
      <edge source="306e" target="330b" id="240" weight="4" />
      <edge source="307" target="313" id="241" weight="8" />
      <edge source="307" target="315b" id="242" weight="4" />
      <edge source="307" target="315d" id="243" weight="4" />
      <edge source="307" target="319" id="244" weight="4" />
      <edge source="308" target="312" id="245" weight="7" />
      <edge source="308" target="315" id="246" weight="7" />
      <edge source="308" target="318" id="247" weight="6" />
      <edge source="308" target="319" id="248" weight="4" />
      <edge source="308" target="330a" id="249" weight="7" />
      <edge source="311" target="325" id="250" weight="5" />
      <edge source="311" target="325a" id="251" weight="4" />
      <edge source="312" target="315" id="252" weight="6" />
      <edge source="312" target="318" id="253" weight="6" />
      <edge source="312" target="330a" id="254" weight="6" />
      <edge source="313" target="315b" id="255" weight="4" />
      <edge source="314a" target="320" id="256" weight="6" />
      <edge source="314a" target="330b" id="257" weight="5" />
      <edge source="315" target="315a" id="258" weight="4" />
      <edge source="315" target="318" id="259" weight="5" />
      <edge source="315" target="319" id="260" weight="4" />
      <edge source="315" target="330a" id="261" weight="7" />
      <edge source="315a" target="315c" id="262" weight="4" />
      <edge source="315d" target="319" id="263" weight="4" />
      <edge source="318" target="330a" id="264" weight="5" />
      <edge source="319" target="330a" id="265" weight="4" />
      <edge source="320" target="330b" id="266" weight="6" />
      <edge source="322" target="330c" id="267" weight="9" />
      <edge source="324a" target="325" id="268" weight="6" />
      <edge source="325" target="325a" id="269" weight="6" />
      <edge source="327" target="328" id="270" weight="5" />
      <edge source="327" target="330d" id="271" weight="4" />
      <edge source="331" target="332" id="272" weight="9" />
      <edge source="331" target="333" id="273" weight="4" />
      <edge source="331" target="337" id="274" weight="5" />
      <edge source="332" target="334" id="275" weight="5" />
      <edge source="332" target="337" id="276" weight="5" />
      <edge source="333" target="334" id="277" weight="6" />
      <edge source="333" target="337" id="278" weight="4" />
      <edge source="334" target="337" id="279" weight="4" />
      <edge source="343" target="344" id="280" weight="5" />
      <edge source="343" target="355" id="281" weight="4" />
      <edge source="352" target="353" id="282" weight="4" />
    </edges>
  </graph>
</gexf>
